%YAML 1.1
%TAG !u! tag:unity3d.com,2011:
--- !u!114 &11400000
MonoBehaviour:
  m_ObjectHideFlags: 0
  m_CorrespondingSourceObject: {fileID: 0}
  m_PrefabInstance: {fileID: 0}
  m_PrefabAsset: {fileID: 0}
  m_GameObject: {fileID: 0}
  m_Enabled: 1
  m_EditorHideFlags: 0
  m_Script: {fileID: 11500000, guid: 187aa6f51e61a3c45badb2915cfa1a85, type: 3}
  m_Name: Menu Settings
  m_EditorClassIdentifier: 
  menuFadeTime: 1
  sceneChangeFadeColor: {r: 0, g: 0, b: 0, a: 1}
  nextSceneIndex: 0
  mainMenuMusicLoop: {fileID: 0}
  musicLoopToChangeTo: {fileID: 0}
